{
    "colorscheme": "atom-dark",
    "fzfarg": "--preview 'bat -f -p {}'",
    "fzfcmd": "/usr/bin/fzf",
    "fzfopen": "newtab",
    "fzfpath": "relative",
    "pluginchannels": [
        "https://raw.githubusercontent.com/micro-editor/plugin-channel/master/channel.json",
        "https://raw.githubusercontent.com/Neko-Box-Coder/unofficial-plugin-channel/stable/channel.json"
    ],
    "relativeruler": true,
    "autosu": true,
    "mkparents": true,
    "/etc/*": {
        "filetype": "conf"
    },
    "/home/*/.config/*": {
        "filetype": "conf"
    }
}
